Réorganisation des données avancée - solution des exercices
…
Exercice 1: Utilisez %>% pour faire
la suite de sélections suivantes surexpt1:

Gardez les plantes qui ne sont pas du background Ler, et
qui ont été traitées avec la température fluctuante.

Ne gardez que les colonnes qui contiennent le génotype, la longueur
de “blade” et des information sur le “bolting” (aide: utilisez
contains())

filter(expt1,  background!="Ler" & fluctuation=="Var") %>% 
  select(genotype, blade.length.mm, contains("bolt"))

## # A tibble: 389 × 5
##    genotype blade.length.mm bolt.survival bolt  days.to.bolt
##    <chr>              <dbl> <chr>         <chr>        <dbl>
##  1 Col Ama             15.1 Y             Y               32
##  2 Col Ama             16   Y             Y               32
##  3 Col Ama             17.5 Y             Y               32
##  4 Col Ama             15.1 Y             Y               33
##  5 Col Ama             15   Y             Y               33
##  6 Col Ama             15.1 Y             Y               33
##  7 Col Ama             13.7 Y             Y               33
##  8 Col Ama             17.7 Y             Y               33
##  9 Col Ama             29.7 Y             Y               68
## 10 Col Ama             22.1 Y             Y               68
## # ℹ 379 more rows
…
Interprétation du résultat: On peut voir un effet très marqué de la
fluctuation de température pour certains génotypes, avec un temps de
floraison plus précoce quand la température varie par rapport à quand
elle ne varie pas. Cet effet est très marqué pour les génotypes Col FRI,
prmt5 FRI et vin3-4 FRI.

Exercice 3:

Créez une nouvelle colonne “blade.ratio” avec le ratio de
blade.length.mm et total.leaf.length.mm

mutate(expt1, blade.ratio=blade.length.mm/total.leaf.length.mm)

## # A tibble: 957 × 16
##    plant_nb genotype background temperature fluctuation day.length vernalization
##       <dbl> <chr>    <chr>            <dbl> <chr>            <dbl> <chr>        
##  1        1 Col Ama  Col                 12 Con                 16 NV           
##  2        2 Col Ama  Col                 12 Con                 16 NV           
##  3        3 Col Ama  Col                 12 Con                 16 NV           
##  4        4 Col Ama  Col                 12 Con                 16 NV           
##  5        5 Col Ama  Col                 12 Con                 16 NV           
##  6        6 Col Ama  Col                 12 Con                 16 NV           
##  7        7 Col Ama  Col                 12 Con                 16 NV           
##  8        8 Col Ama  Col                 12 Con                 16 NV           
##  9        1 Col Ama  Col                 12 Con                  8 NV           
## 10        2 Col Ama  Col                 12 Con                  8 NV           
## # ℹ 947 more rows
## # ℹ 9 more variables: bolt.survival <chr>, bolt <chr>, days.to.bolt <dbl>,
## #   days.to.flower <dbl>, rosette.leaf.num <dbl>, cauline.leaf.num <dbl>,
## #   blade.length.mm <dbl>, total.leaf.length.mm <dbl>, blade.ratio <dbl>

BONUS:

Créez une nouvelle colonne “late.flowering” qui contient
TRUE si days.to.bolt est supérieur à 70, et
FALSE days.to.bolt est inférieur à 70.

Aide: Trouvez la solution en utilisant google

# En tapant "mutate tidyverse create new column depending on value other column" dasn google, le 1er site (https://www.marsja.se/r-add-column-to-dataframe-based-on-other-columns-conditions-dplyr/) propose plusieurs solutions pour créer une colonne en fonction des valeurs d'une autre colonne. Voici l'une d'elles qui utilise la fonction mutate():

mutate(expt1, late.flowering=if_else(condition = days.to.bolt>70, TRUE, FALSE))

## # A tibble: 957 × 16
##    plant_nb genotype background temperature fluctuation day.length vernalization
##       <dbl> <chr>    <chr>            <dbl> <chr>            <dbl> <chr>        
##  1        1 Col Ama  Col                 12 Con                 16 NV           
##  2        2 Col Ama  Col                 12 Con                 16 NV           
##  3        3 Col Ama  Col                 12 Con                 16 NV           
##  4        4 Col Ama  Col                 12 Con                 16 NV           
##  5        5 Col Ama  Col                 12 Con                 16 NV           
##  6        6 Col Ama  Col                 12 Con                 16 NV           
##  7        7 Col Ama  Col                 12 Con                 16 NV           
##  8        8 Col Ama  Col                 12 Con                 16 NV           
##  9        1 Col Ama  Col                 12 Con                  8 NV           
## 10        2 Col Ama  Col                 12 Con                  8 NV           
## # ℹ 947 more rows
## # ℹ 9 more variables: bolt.survival <chr>, bolt <chr>, days.to.bolt <dbl>,
## #   days.to.flower <dbl>, rosette.leaf.num <dbl>, cauline.leaf.num <dbl>,
## #   blade.length.mm <dbl>, total.leaf.length.mm <dbl>, late.flowering <lgl>
…
